#.echo Processing nagia2 off
.strsto cm-main-dir "offln\ia"
.echofile alist.lst
.echo Bill;@cm-main-dir@\Bill.txt
.echofile
.strsto nag-default "Bill"
%%
if (@cm-nag-off@=1)
{
.return offln\instantactionnag.off
}
%%
%%
if (@cm-nag-count@>3)
{
.return ui\ianag2.dtf
}
else
{
.return ui\ianag.dtf
}
%%
